{
  "$schema": "https://raw.githubusercontent.com/JanDeDobbeleer/oh-my-posh/main/themes/schema.json",
  "version": 2,
  "final_space": true,
  "console_title_template": "{{.User}}@{{.Host}} in {{ .PWD }}",
  "blocks": [
    {
      "type": "prompt",
      "alignment": "left",
      "segments": [
        {
          "type": "path",
          "style": "powerline",
          "powerline_symbol": "\ue0b0",
          "foreground": "#003544",
          "background": "#0087D8",
          "template": " \ue5ff {{ .Path }} ",
          "properties": {
            "folder_separator_icon": "/",
            "style": "full"
          }
        },
        {
          "type": "git",
          "style": "powerline",
          "powerline_symbol": "\ue0b0",
          "foreground": "#193549",
          "background": "#d2ff5e",
          "background_templates": [
            "{{ if or (.Working.Changed) (.Staging.Changed) }}#ff9248{{ end }}",
            "{{ if and (gt .Ahead 0) (gt .Behind 0) }}#f26d50{{ end }}",
            "{{ if gt .Ahead 0 }}#89d1dc{{ end }}",
            "{{ if gt .Behind 0 }}#f17c37{{ end }}"
          ],
          "template": " {{ .UpstreamIcon }}{{ .HEAD }}{{ .BranchStatus }}{{ if .Working.Changed }} \uf044 {{ .Working.String }}{{ end }}{{ if and (.Working.Changed) (.Staging.Changed) }} |{{ end }}{{ if .Staging.Changed }} \uf046 {{ .Staging.String }}{{ end }}{{ if gt .StashCount 0 }} \uf692 {{ .StashCount }}{{ end }} ",
          "properties": {
            "fetch_stash_count": true,
            "fetch_status": true,
            "fetch_upstream_icon": true
          }
        },
        {
          "type": "time",
          "style": "powerline",
          "powerline_symbol": "\ue0b0",
          "foreground": "#fff",
          "background": "#003543",
          "template": "<#fff> \uf64f </>{{ .CurrentDate | date .Format }} "
        },
        {
          "type": "executiontime",
          "style": "diamond",
          "foreground": "#ffffff",
          "background": "#83769c",
          "trailing_diamond": "\ue0b4",
          "template": " \ufa1e {{ .FormattedMs }}\u2800",
          "properties": {
            "always_enabled": true
          }
        }
      ],
      "vertical_offset": 1
    },
    {
      "type": "prompt",
      "alignment": "left",
      "segments": [
        {
          "type": "exit",
          "style": "plain",
          "foreground": "#ffffff",
          "foreground_templates": [
            "{{ if gt .Code 0 }}#ff0000{{ end }}"
          ],
          "template": "❯{{ if gt .Code 0 }}\uf00d{{ else }}\uf42e{{ end }} ",
          "properties": {
            "always_enabled": true
          }
        }
      ],
      "newline": true
    }
  ]
}
